<?xml version="1.0" encoding="UTF-8" standalone="no"?>
<!-- Created with Inkscape (http://www.inkscape.org/) -->

<svg
   xmlns:dc="http://purl.org/dc/elements/1.1/"
   xmlns:cc="http://creativecommons.org/ns#"
   xmlns:rdf="http://www.w3.org/1999/02/22-rdf-syntax-ns#"
   xmlns:svg="http://www.w3.org/2000/svg"
   xmlns="http://www.w3.org/2000/svg"
   xmlns:xlink="http://www.w3.org/1999/xlink"
   xmlns:sodipodi="http://sodipodi.sourceforge.net/DTD/sodipodi-0.dtd"
   xmlns:inkscape="http://www.inkscape.org/namespaces/inkscape"
   width="210mm"
   height="144mm"
   viewBox="0 0 210 144"
   version="1.1"
   id="svg8"
   inkscape:version="0.92.2 (5c3e80d, 2017-08-06)"
   sodipodi:docname="ecs.svg">
  <defs
     id="defs2">
    <marker
       inkscape:isstock="true"
       style="overflow:visible"
       id="marker2134"
       refX="0"
       refY="0"
       orient="auto"
       inkscape:stockid="Arrow2Mstart">
      <path
         transform="scale(0.6)"
         d="M 8.7185878,4.0337352 -2.2072895,0.01601326 8.7185884,-4.0017078 c -1.7454984,2.3720609 -1.7354408,5.6174519 -6e-7,8.035443 z"
         style="fill:#0038a5;fill-opacity:1;fill-rule:evenodd;stroke:#0038a5;stroke-width:0.625;stroke-linejoin:round;stroke-opacity:1"
         id="path2132"
         inkscape:connector-curvature="0" />
    </marker>
    <marker
       inkscape:stockid="Arrow2Mstart"
       orient="auto"
       refY="0"
       refX="0"
       id="marker2098"
       style="overflow:visible"
       inkscape:isstock="true"
       inkscape:collect="always">
      <path
         id="path2096"
         style="fill:#0038a5;fill-opacity:1;fill-rule:evenodd;stroke:#0038a5;stroke-width:0.625;stroke-linejoin:round;stroke-opacity:1"
         d="M 8.7185878,4.0337352 -2.2072895,0.01601326 8.7185884,-4.0017078 c -1.7454984,2.3720609 -1.7354408,5.6174519 -6e-7,8.035443 z"
         transform="scale(0.6)"
         inkscape:connector-curvature="0" />
    </marker>
    <linearGradient
       inkscape:collect="always"
       id="linearGradient2063">
      <stop
         style="stop-color:#ffffff;stop-opacity:1;"
         offset="0"
         id="stop2059" />
      <stop
         style="stop-color:#ffffff;stop-opacity:0;"
         offset="1"
         id="stop2061" />
    </linearGradient>
    <marker
       inkscape:stockid="Arrow2Mstart"
       orient="auto"
       refY="0"
       refX="0"
       id="Arrow2Mstart"
       style="overflow:visible"
       inkscape:isstock="true">
      <path
         id="path925"
         style="fill:#000000;fill-opacity:1;fill-rule:evenodd;stroke:#000000;stroke-width:0.625;stroke-linejoin:round;stroke-opacity:1"
         d="M 8.7185878,4.0337352 -2.2072895,0.01601326 8.7185884,-4.0017078 c -1.7454984,2.3720609 -1.7354408,5.6174519 -6e-7,8.035443 z"
         transform="scale(0.6)"
         inkscape:connector-curvature="0" />
    </marker>
    <marker
       inkscape:stockid="Arrow1Lstart"
       orient="auto"
       refY="0"
       refX="0"
       id="Arrow1Lstart"
       style="overflow:visible"
       inkscape:isstock="true">
      <path
         id="path901"
         d="M 0,0 5,-5 -12.5,0 5,5 Z"
         style="fill:#000000;fill-opacity:1;fill-rule:evenodd;stroke:#000000;stroke-width:1.00000003pt;stroke-opacity:1"
         transform="matrix(0.8,0,0,0.8,10,0)"
         inkscape:connector-curvature="0" />
    </marker>
    <linearGradient
       inkscape:collect="always"
       xlink:href="#linearGradient2063"
       id="linearGradient2065"
       x1="212.80051"
       y1="198.98273"
       x2="224.89583"
       y2="198.98273"
       gradientUnits="userSpaceOnUse"
       gradientTransform="matrix(0.96234544,0,0,0.96234544,-407.66235,18.232812)" />
  </defs>
  <sodipodi:namedview
     id="base"
     pagecolor="#ffffff"
     bordercolor="#666666"
     borderopacity="1.0"
     inkscape:pageopacity="0.0"
     inkscape:pageshadow="2"
     inkscape:zoom="0.7"
     inkscape:cx="391.50628"
     inkscape:cy="257.54896"
     inkscape:document-units="mm"
     inkscape:current-layer="g1947"
     showgrid="false"
     inkscape:window-width="1364"
     inkscape:window-height="747"
     inkscape:window-x="0"
     inkscape:window-y="19"
     inkscape:window-maximized="0" />
  <metadata
     id="metadata5">
    <rdf:RDF>
      <cc:Work
         rdf:about="">
        <dc:format>image/svg+xml</dc:format>
        <dc:type
           rdf:resource="http://purl.org/dc/dcmitype/StillImage" />
        <dc:title></dc:title>
      </cc:Work>
    </rdf:RDF>
  </metadata>
  <g
     inkscape:label="Layer 1"
     inkscape:groupmode="layer"
     id="layer1"
     transform="translate(0,-153)">
    <text
       xml:space="preserve"
       style="font-style:normal;font-weight:normal;font-size:10.18482208px;line-height:1.25;font-family:sans-serif;letter-spacing:0px;word-spacing:0px;fill:#ef2d5e;fill-opacity:1;stroke:none;stroke-width:0.25462055;"
       x="60.472363"
       y="210.20345"
       id="text12"><tspan
         sodipodi:role="line"
         id="tspan10"
         x="60.472363"
         y="210.20345"
         style="fill:#ef2d5e;fill-opacity:1;stroke-width:0.25462055;">E</tspan></text>
    <g
       id="g23"
       style="stroke:#0038a5;stroke-opacity:1;font-variant-east_asian:normal;opacity:1;vector-effect:none;fill:none;fill-opacity:1;stroke-width:0.56499994;stroke-linecap:butt;stroke-linejoin:miter;stroke-miterlimit:4;stroke-dasharray:none;stroke-dashoffset:0"
       transform="matrix(0.96234544,0,0,0.96234544,4.9979737,20.779018)">
      <text
         id="text16"
         y="158.66071"
         x="38.931545"
         style="font-style:normal;font-weight:normal;font-size:10.58333302px;line-height:1.25;font-family:sans-serif;letter-spacing:0px;word-spacing:0px;fill:#0038a5;fill-opacity:1;stroke:#0038a5;stroke-width:0.26458332;stroke-opacity:1;font-variant-east_asian:normal;vector-effect:none;stroke-linecap:butt;stroke-linejoin:miter;stroke-miterlimit:4;stroke-dasharray:none;stroke-dashoffset:0;font-variant:normal;font-stretch:normal;font-variant-ligatures:normal;font-variant-position:normal;font-variant-caps:normal;font-variant-numeric:normal;font-variant-alternates:normal;font-feature-settings:normal;text-indent:0;text-align:start;text-decoration:none;text-decoration-line:none;text-decoration-style:solid;text-decoration-color:#000000;text-transform:none;writing-mode:lr-tb;direction:ltr;text-orientation:mixed;dominant-baseline:auto;baseline-shift:baseline;text-anchor:start;white-space:normal;shape-padding:0;opacity:1;"
         xml:space="preserve"><tspan
           style="stroke:#0038a5;stroke-width:0.26458332;stroke-opacity:1;font-variant-east_asian:normal;vector-effect:none;fill:#0038a5;fill-opacity:1;stroke-linecap:butt;stroke-linejoin:miter;stroke-miterlimit:4;stroke-dasharray:none;stroke-dashoffset:0;font-style:normal;font-variant:normal;font-weight:normal;font-stretch:normal;font-size:10.58333302px;line-height:1.25;font-family:sans-serif;font-variant-ligatures:normal;font-variant-position:normal;font-variant-caps:normal;font-variant-numeric:normal;font-variant-alternates:normal;font-feature-settings:normal;text-indent:0;text-align:start;text-decoration:none;text-decoration-line:none;text-decoration-style:solid;text-decoration-color:#000000;letter-spacing:0px;word-spacing:0px;text-transform:none;writing-mode:lr-tb;direction:ltr;text-orientation:mixed;dominant-baseline:auto;baseline-shift:baseline;text-anchor:start;white-space:normal;shape-padding:0;"
           y="158.66071"
           x="38.931545"
           id="tspan14"
           sodipodi:role="line">C</tspan></text>
      <rect
         ry="1.8898809"
         y="146.1875"
         x="32.430355"
         height="17.008928"
         width="22.300594"
         id="rect18"
         style="fill:none;stroke:#0038a5;stroke-width:0.56499994;stroke-miterlimit:4;stroke-dasharray:none;stroke-opacity:1;font-variant-east_asian:normal;vector-effect:none;fill-opacity:1;stroke-linecap:butt;stroke-linejoin:miter;stroke-dashoffset:0" />
    </g>
    <g
       id="g31"
       transform="matrix(0.96234544,0,0,0.96234544,40.644858,26.598917)"
       style="stroke:#0038a5;stroke-opacity:1;font-variant-east_asian:normal;opacity:1;vector-effect:none;fill:none;fill-opacity:1;stroke-width:0.56499994;stroke-linecap:butt;stroke-linejoin:miter;stroke-miterlimit:4;stroke-dasharray:none;stroke-dashoffset:0">
      <text
         xml:space="preserve"
         style="font-style:normal;font-weight:normal;font-size:10.58333302px;line-height:1.25;font-family:sans-serif;letter-spacing:0px;word-spacing:0px;fill:#0038a5;fill-opacity:1;stroke:#0038a5;stroke-width:0.26458332;stroke-opacity:1;font-variant-east_asian:normal;vector-effect:none;stroke-linecap:butt;stroke-linejoin:miter;stroke-miterlimit:4;stroke-dasharray:none;stroke-dashoffset:0;font-variant:normal;font-stretch:normal;font-variant-ligatures:normal;font-variant-position:normal;font-variant-caps:normal;font-variant-numeric:normal;font-variant-alternates:normal;font-feature-settings:normal;text-indent:0;text-align:start;text-decoration:none;text-decoration-line:none;text-decoration-style:solid;text-decoration-color:#000000;text-transform:none;writing-mode:lr-tb;direction:ltr;text-orientation:mixed;dominant-baseline:auto;baseline-shift:baseline;text-anchor:start;white-space:normal;shape-padding:0;opacity:1;"
         x="38.931545"
         y="158.66071"
         id="text27"><tspan
           sodipodi:role="line"
           id="tspan25"
           x="38.931545"
           y="158.66071"
           style="stroke:#0038a5;stroke-width:0.26458332;stroke-opacity:1;font-variant-east_asian:normal;vector-effect:none;fill:#0038a5;fill-opacity:1;stroke-linecap:butt;stroke-linejoin:miter;stroke-miterlimit:4;stroke-dasharray:none;stroke-dashoffset:0;font-style:normal;font-variant:normal;font-weight:normal;font-stretch:normal;font-size:10.58333302px;line-height:1.25;font-family:sans-serif;font-variant-ligatures:normal;font-variant-position:normal;font-variant-caps:normal;font-variant-numeric:normal;font-variant-alternates:normal;font-feature-settings:normal;text-indent:0;text-align:start;text-decoration:none;text-decoration-line:none;text-decoration-style:solid;text-decoration-color:#000000;letter-spacing:0px;word-spacing:0px;text-transform:none;writing-mode:lr-tb;direction:ltr;text-orientation:mixed;dominant-baseline:auto;baseline-shift:baseline;text-anchor:start;white-space:normal;shape-padding:0;">C</tspan></text>
      <rect
         style="fill:none;stroke:#0038a5;stroke-width:0.56499994;stroke-miterlimit:4;stroke-dasharray:none;stroke-opacity:1;font-variant-east_asian:normal;vector-effect:none;fill-opacity:1;stroke-linecap:butt;stroke-linejoin:miter;stroke-dashoffset:0"
         id="rect29"
         width="22.300594"
         height="17.008928"
         x="32.430355"
         y="146.1875"
         ry="1.8898809" />
    </g>
    <rect
       style="fill:none;stroke:#ef2d5e;stroke-width:0.96234548;stroke-miterlimit:4;stroke-dasharray:7.69876347, 3.84938174000000011;stroke-dashoffset:0;stroke-opacity:1"
       id="rect33"
       width="41.103024"
       height="28.190134"
       x="43.409302"
       y="192.19814"
       ry="5.4561515" />
    <g
       id="g849"
       transform="matrix(0.96234544,0,0,0.96234544,-19.445601,50.751499)"
       style="stroke:#0038a5;stroke-opacity:1;font-variant-east_asian:normal;opacity:1;vector-effect:none;fill:none;fill-opacity:1;stroke-width:0.56499994;stroke-linecap:butt;stroke-linejoin:miter;stroke-miterlimit:4;stroke-dasharray:none;stroke-dashoffset:0">
      <text
         xml:space="preserve"
         style="font-style:normal;font-weight:normal;font-size:10.58333302px;line-height:1.25;font-family:sans-serif;letter-spacing:0px;word-spacing:0px;fill:#0038a5;fill-opacity:1;stroke:#0038a5;stroke-width:0.26458332;stroke-opacity:1;font-variant-east_asian:normal;vector-effect:none;stroke-linecap:butt;stroke-linejoin:miter;stroke-miterlimit:4;stroke-dasharray:none;stroke-dashoffset:0;font-variant:normal;font-stretch:normal;font-variant-ligatures:normal;font-variant-position:normal;font-variant-caps:normal;font-variant-numeric:normal;font-variant-alternates:normal;font-feature-settings:normal;text-indent:0;text-align:start;text-decoration:none;text-decoration-line:none;text-decoration-style:solid;text-decoration-color:#000000;text-transform:none;writing-mode:lr-tb;direction:ltr;text-orientation:mixed;dominant-baseline:auto;baseline-shift:baseline;text-anchor:start;white-space:normal;shape-padding:0;opacity:1;"
         x="38.931545"
         y="158.66071"
         id="text845"><tspan
           sodipodi:role="line"
           id="tspan843"
           x="38.931545"
           y="158.66071"
           style="stroke:#0038a5;stroke-width:0.26458332;stroke-opacity:1;font-variant-east_asian:normal;vector-effect:none;fill:#0038a5;fill-opacity:1;stroke-linecap:butt;stroke-linejoin:miter;stroke-miterlimit:4;stroke-dasharray:none;stroke-dashoffset:0;font-style:normal;font-variant:normal;font-weight:normal;font-stretch:normal;font-size:10.58333302px;line-height:1.25;font-family:sans-serif;font-variant-ligatures:normal;font-variant-position:normal;font-variant-caps:normal;font-variant-numeric:normal;font-variant-alternates:normal;font-feature-settings:normal;text-indent:0;text-align:start;text-decoration:none;text-decoration-line:none;text-decoration-style:solid;text-decoration-color:#000000;letter-spacing:0px;word-spacing:0px;text-transform:none;writing-mode:lr-tb;direction:ltr;text-orientation:mixed;dominant-baseline:auto;baseline-shift:baseline;text-anchor:start;white-space:normal;shape-padding:0;">C</tspan></text>
      <rect
         style="fill:none;stroke:#0038a5;stroke-width:0.56499994;stroke-miterlimit:4;stroke-dasharray:none;stroke-opacity:1;font-variant-east_asian:normal;vector-effect:none;fill-opacity:1;stroke-linecap:butt;stroke-linejoin:miter;stroke-dashoffset:0"
         id="rect847"
         width="22.300594"
         height="17.008928"
         x="32.430355"
         y="146.1875"
         ry="1.8898809" />
    </g>
    <g
       transform="matrix(0.96234544,0,0,0.96234544,37.589405,89.526576)"
       id="g857"
       style="stroke:#0038a5;stroke-opacity:1;font-variant-east_asian:normal;opacity:1;vector-effect:none;fill:none;fill-opacity:1;stroke-width:0.56499994;stroke-linecap:butt;stroke-linejoin:miter;stroke-miterlimit:4;stroke-dasharray:none;stroke-dashoffset:0">
      <text
         id="text853"
         y="158.66071"
         x="38.931545"
         style="font-style:normal;font-weight:normal;font-size:10.58333302px;line-height:1.25;font-family:sans-serif;letter-spacing:0px;word-spacing:0px;fill:#0038a5;fill-opacity:1;stroke:#0038a5;stroke-width:0.26458332;stroke-opacity:1;font-variant-east_asian:normal;vector-effect:none;stroke-linecap:butt;stroke-linejoin:miter;stroke-miterlimit:4;stroke-dasharray:none;stroke-dashoffset:0;font-variant:normal;font-stretch:normal;font-variant-ligatures:normal;font-variant-position:normal;font-variant-caps:normal;font-variant-numeric:normal;font-variant-alternates:normal;font-feature-settings:normal;text-indent:0;text-align:start;text-decoration:none;text-decoration-line:none;text-decoration-style:solid;text-decoration-color:#000000;text-transform:none;writing-mode:lr-tb;direction:ltr;text-orientation:mixed;dominant-baseline:auto;baseline-shift:baseline;text-anchor:start;white-space:normal;shape-padding:0;opacity:1;"
         xml:space="preserve"><tspan
           style="stroke:#0038a5;stroke-width:0.26458332;stroke-opacity:1;font-variant-east_asian:normal;vector-effect:none;fill:#0038a5;fill-opacity:1;stroke-linecap:butt;stroke-linejoin:miter;stroke-miterlimit:4;stroke-dasharray:none;stroke-dashoffset:0;font-style:normal;font-variant:normal;font-weight:normal;font-stretch:normal;font-size:10.58333302px;line-height:1.25;font-family:sans-serif;font-variant-ligatures:normal;font-variant-position:normal;font-variant-caps:normal;font-variant-numeric:normal;font-variant-alternates:normal;font-feature-settings:normal;text-indent:0;text-align:start;text-decoration:none;text-decoration-line:none;text-decoration-style:solid;text-decoration-color:#000000;letter-spacing:0px;word-spacing:0px;text-transform:none;writing-mode:lr-tb;direction:ltr;text-orientation:mixed;dominant-baseline:auto;baseline-shift:baseline;text-anchor:start;white-space:normal;shape-padding:0;"
           y="158.66071"
           x="38.931545"
           id="tspan851"
           sodipodi:role="line">C*</tspan></text>
      <rect
         ry="1.8898809"
         y="146.1875"
         x="32.430355"
         height="17.008928"
         width="22.300594"
         id="rect855"
         style="fill:none;stroke:#0038a5;stroke-width:0.56499994;stroke-miterlimit:4;stroke-dasharray:none;stroke-opacity:1;font-variant-east_asian:normal;vector-effect:none;fill-opacity:1;stroke-linecap:butt;stroke-linejoin:miter;stroke-dashoffset:0" />
    </g>
    <g
       id="g865"
       transform="matrix(0.96234544,0,0,0.96234544,1.942527,88.435339)"
       style="stroke:#0038a5;stroke-opacity:1">
      <text
         xml:space="preserve"
         style="font-style:normal;font-weight:normal;font-size:10.58333302px;line-height:1.25;font-family:sans-serif;letter-spacing:0px;word-spacing:0px;fill:#0038a5;fill-opacity:1;stroke:#0038a5;stroke-width:0.26458332;stroke-opacity:1;"
         x="38.931545"
         y="158.66071"
         id="text861"><tspan
           sodipodi:role="line"
           id="tspan859"
           x="38.931545"
           y="158.66071"
           style="stroke:#0038a5;stroke-width:0.26458332;stroke-opacity:1;fill:#0038a5;fill-opacity:1;">C</tspan></text>
      <rect
         style="fill:none;stroke:#0038a5;stroke-width:0.56499994;stroke-miterlimit:4;stroke-dasharray:none;stroke-opacity:1"
         id="rect863"
         width="22.300594"
         height="17.008928"
         x="32.430355"
         y="146.1875"
         ry="1.8898809" />
    </g>
    <g
       transform="matrix(0.96234544,0,0,0.96234544,64.870179,62.973287)"
       id="g873"
       style="stroke:#0038a5;stroke-opacity:1;font-variant-east_asian:normal;opacity:1;vector-effect:none;fill:none;fill-opacity:1;stroke-width:0.56499994;stroke-linecap:butt;stroke-linejoin:miter;stroke-miterlimit:4;stroke-dasharray:none;stroke-dashoffset:0">
      <text
         id="text869"
         y="158.66071"
         x="38.931545"
         style="font-style:normal;font-weight:normal;font-size:10.58333302px;line-height:1.25;font-family:sans-serif;letter-spacing:0px;word-spacing:0px;fill:#0038a5;fill-opacity:1;stroke:#0038a5;stroke-width:0.26458332;stroke-opacity:1;font-variant-east_asian:normal;vector-effect:none;stroke-linecap:butt;stroke-linejoin:miter;stroke-miterlimit:4;stroke-dasharray:none;stroke-dashoffset:0;font-variant:normal;font-stretch:normal;font-variant-ligatures:normal;font-variant-position:normal;font-variant-caps:normal;font-variant-numeric:normal;font-variant-alternates:normal;font-feature-settings:normal;text-indent:0;text-align:start;text-decoration:none;text-decoration-line:none;text-decoration-style:solid;text-decoration-color:#000000;text-transform:none;writing-mode:lr-tb;direction:ltr;text-orientation:mixed;dominant-baseline:auto;baseline-shift:baseline;text-anchor:start;white-space:normal;shape-padding:0;opacity:1;"
         xml:space="preserve"><tspan
           style="stroke:#0038a5;stroke-width:0.26458332;stroke-opacity:1;font-variant-east_asian:normal;vector-effect:none;fill:#0038a5;fill-opacity:1;stroke-linecap:butt;stroke-linejoin:miter;stroke-miterlimit:4;stroke-dasharray:none;stroke-dashoffset:0;font-style:normal;font-variant:normal;font-weight:normal;font-stretch:normal;font-size:10.58333302px;line-height:1.25;font-family:sans-serif;font-variant-ligatures:normal;font-variant-position:normal;font-variant-caps:normal;font-variant-numeric:normal;font-variant-alternates:normal;font-feature-settings:normal;text-indent:0;text-align:start;text-decoration:none;text-decoration-line:none;text-decoration-style:solid;text-decoration-color:#000000;letter-spacing:0px;word-spacing:0px;text-transform:none;writing-mode:lr-tb;direction:ltr;text-orientation:mixed;dominant-baseline:auto;baseline-shift:baseline;text-anchor:start;white-space:normal;shape-padding:0;"
           y="158.66071"
           x="38.931545"
           id="tspan867"
           sodipodi:role="line">C</tspan></text>
      <rect
         ry="1.8898809"
         y="146.1875"
         x="32.430355"
         height="17.008928"
         width="22.300594"
         id="rect871"
         style="fill:none;stroke:#0038a5;stroke-width:0.56499994;stroke-miterlimit:4;stroke-dasharray:none;stroke-opacity:1;font-variant-east_asian:normal;vector-effect:none;fill-opacity:1;stroke-linecap:butt;stroke-linejoin:miter;stroke-dashoffset:0" />
    </g>
    <rect
       style="fill:none;fill-opacity:1;stroke:#6d6d6d;stroke-width:0.94648534;stroke-miterlimit:4;stroke-dasharray:none;stroke-dashoffset:0;stroke-opacity:1"
       id="rect875"
       width="121.49038"
       height="96.40773"
       x="3.7612422"
       y="156.49922"
       ry="5.2778025" />
    <path
       style="fill:none;stroke:#0038a5;stroke-width:0.54372512;stroke-linecap:butt;stroke-linejoin:miter;stroke-miterlimit:4;stroke-dasharray:none;stroke-opacity:1;font-variant-east_asian:normal;opacity:1;vector-effect:none;fill-opacity:1;stroke-dashoffset:0"
       d="m 33.115359,199.2549 c 10.002951,2.54621 10.002951,2.54621 10.002951,2.54621"
       id="path877"
       inkscape:connector-curvature="0" />
    <path
       inkscape:connector-curvature="0"
       id="path881"
       d="m 44.646038,178.01228 6.91113,14.18601"
       style="fill:none;stroke:#0038a5;stroke-width:0.54372512;stroke-linecap:butt;stroke-linejoin:miter;stroke-miterlimit:4;stroke-dasharray:none;stroke-opacity:1;font-variant-east_asian:normal;opacity:1;vector-effect:none;fill-opacity:1;stroke-dashoffset:0"
       sodipodi:nodetypes="cc" />
    <path
       sodipodi:nodetypes="cc"
       style="fill:none;stroke:#0038a5;stroke-width:0.54372512;stroke-linecap:butt;stroke-linejoin:miter;stroke-miterlimit:4;stroke-dasharray:none;stroke-opacity:1;font-variant-east_asian:normal;opacity:1;vector-effect:none;fill-opacity:1;stroke-dashoffset:0"
       d="m 83.247519,183.62965 -8.273538,8.58929"
       id="path883"
       inkscape:connector-curvature="0" />
    <path
       sodipodi:nodetypes="cc"
       style="fill:none;stroke:#0038a5;stroke-width:0.54372512;stroke-linecap:butt;stroke-linejoin:miter;stroke-miterlimit:4;stroke-dasharray:none;stroke-opacity:1;font-variant-east_asian:normal;opacity:1;vector-effect:none;fill-opacity:1;stroke-dashoffset:0"
       d="m 84.694209,203.6562 11.276051,7.8205"
       id="path885"
       inkscape:connector-curvature="0" />
    <path
       inkscape:connector-curvature="0"
       id="path887"
       d="m 75.055002,220.57028 4.546794,9.82109"
       style="fill:none;stroke:#0038a5;stroke-width:0.54372512;stroke-linecap:butt;stroke-linejoin:miter;stroke-miterlimit:4;stroke-dasharray:none;stroke-opacity:1;font-variant-east_asian:normal;opacity:1;vector-effect:none;fill-opacity:1;stroke-dashoffset:0"
       sodipodi:nodetypes="cc" />
    <path
       sodipodi:nodetypes="cc"
       style="fill:none;stroke:#0038a5;stroke-width:0.54372512;stroke-linecap:butt;stroke-linejoin:miter;stroke-miterlimit:4;stroke-dasharray:none;stroke-opacity:1;font-variant-east_asian:normal;opacity:1;vector-effect:none;fill-opacity:1;stroke-dashoffset:0"
       d="m 50.684184,220.37823 -4.546794,9.10378"
       id="path889"
       inkscape:connector-curvature="0" />
    <text
       id="text1939"
       y="216.02335"
       x="191.52563"
       style="font-style:normal;font-weight:normal;font-size:10.18482208px;line-height:1.25;font-family:sans-serif;letter-spacing:0px;word-spacing:0px;fill:#ef2d5e;fill-opacity:1;stroke:none;stroke-width:0.25462055;"
       xml:space="preserve"><tspan
         style="fill:#ef2d5e;fill-opacity:1;stroke-width:0.25462055;"
         y="216.02335"
         x="191.52563"
         id="tspan1937"
         sodipodi:role="line">E</tspan></text>
    <g
       transform="matrix(0.96234544,0,0,0.96234544,150.34993,26.598917)"
       style="stroke:#0038a5;stroke-opacity:1;font-variant-east_asian:normal;opacity:1;vector-effect:none;fill:none;fill-opacity:1;stroke-width:0.56499994;stroke-linecap:butt;stroke-linejoin:miter;stroke-miterlimit:4;stroke-dasharray:none;stroke-dashoffset:0"
       id="g1947">
      <text
         xml:space="preserve"
         style="font-style:normal;font-weight:normal;font-size:10.58333302px;line-height:1.25;font-family:sans-serif;letter-spacing:0px;word-spacing:0px;fill:#0038a5;fill-opacity:1;stroke:#0038a5;stroke-width:0.26458332;stroke-opacity:1;font-variant-east_asian:normal;vector-effect:none;stroke-linecap:butt;stroke-linejoin:miter;stroke-miterlimit:4;stroke-dasharray:none;stroke-dashoffset:0;font-variant:normal;font-stretch:normal;font-variant-ligatures:normal;font-variant-position:normal;font-variant-caps:normal;font-variant-numeric:normal;font-variant-alternates:normal;font-feature-settings:normal;text-indent:0;text-align:start;text-decoration:none;text-decoration-line:none;text-decoration-style:solid;text-decoration-color:#000000;text-transform:none;writing-mode:lr-tb;direction:ltr;text-orientation:mixed;dominant-baseline:auto;baseline-shift:baseline;text-anchor:start;white-space:normal;shape-padding:0;opacity:1;"
         x="38.931545"
         y="158.66071"
         id="text1943"><tspan
           sodipodi:role="line"
           id="tspan1941"
           x="38.931545"
           y="158.66071"
           style="stroke:#0038a5;stroke-width:0.26458332;stroke-opacity:1;font-variant-east_asian:normal;vector-effect:none;fill:#0038a5;fill-opacity:1;stroke-linecap:butt;stroke-linejoin:miter;stroke-miterlimit:4;stroke-dasharray:none;stroke-dashoffset:0;font-style:normal;font-variant:normal;font-weight:normal;font-stretch:normal;font-size:10.58333302px;line-height:1.25;font-family:sans-serif;font-variant-ligatures:normal;font-variant-position:normal;font-variant-caps:normal;font-variant-numeric:normal;font-variant-alternates:normal;font-feature-settings:normal;text-indent:0;text-align:start;text-decoration:none;text-decoration-line:none;text-decoration-style:solid;text-decoration-color:#000000;letter-spacing:0px;word-spacing:0px;text-transform:none;writing-mode:lr-tb;direction:ltr;text-orientation:mixed;dominant-baseline:auto;baseline-shift:baseline;text-anchor:start;white-space:normal;shape-padding:0;">C</tspan></text>
      <rect
         style="fill:none;stroke:#0038a5;stroke-width:0.56499994;stroke-miterlimit:4;stroke-dasharray:none;stroke-opacity:1;font-variant-east_asian:normal;vector-effect:none;fill-opacity:1;stroke-linecap:butt;stroke-linejoin:miter;stroke-dashoffset:0"
         id="rect1945"
         width="22.300594"
         height="17.008928"
         x="32.430355"
         y="146.1875"
         ry="1.8898809" />
    </g>
    <path
       style="fill:none;stroke:#ef2d5e;stroke-width:0.96234548;stroke-miterlimit:4;stroke-dasharray:7.69876337, 3.84938168999999997;stroke-dashoffset:0;stroke-opacity:1"
       d="m 183.45068,198.20006 c -3.02271,0 -5.45644,2.43323 -5.45644,5.45593 v 17.09638 c 0,3.02271 2.43373,5.45595 5.45644,5.45595 h 21.0972 v -28.00826 z"
       id="rect1957"
       inkscape:connector-curvature="0" />
    <g
       style="stroke:#0038a5;stroke-opacity:1;font-variant-east_asian:normal;opacity:1;vector-effect:none;fill:none;fill-opacity:1;stroke-width:0.56499994;stroke-linecap:butt;stroke-linejoin:miter;stroke-miterlimit:4;stroke-dasharray:none;stroke-dashoffset:0"
       transform="matrix(0.96234544,0,0,0.96234544,114.70306,58.608363)"
       id="g1965">
      <text
         id="text1961"
         y="158.66071"
         x="38.931545"
         style="font-style:normal;font-weight:normal;font-size:10.58333302px;line-height:1.25;font-family:sans-serif;letter-spacing:0px;word-spacing:0px;fill:#0038a5;fill-opacity:1;stroke:#0038a5;stroke-width:0.26458332;stroke-opacity:1;font-variant-east_asian:normal;vector-effect:none;stroke-linecap:butt;stroke-linejoin:miter;stroke-miterlimit:4;stroke-dasharray:none;stroke-dashoffset:0;font-variant:normal;font-stretch:normal;font-variant-ligatures:normal;font-variant-position:normal;font-variant-caps:normal;font-variant-numeric:normal;font-variant-alternates:normal;font-feature-settings:normal;text-indent:0;text-align:start;text-decoration:none;text-decoration-line:none;text-decoration-style:solid;text-decoration-color:#000000;text-transform:none;writing-mode:lr-tb;direction:ltr;text-orientation:mixed;dominant-baseline:auto;baseline-shift:baseline;text-anchor:start;white-space:normal;shape-padding:0;opacity:1;"
         xml:space="preserve"><tspan
           style="stroke:#0038a5;stroke-width:0.26458332;stroke-opacity:1;font-variant-east_asian:normal;vector-effect:none;fill:#0038a5;fill-opacity:1;stroke-linecap:butt;stroke-linejoin:miter;stroke-miterlimit:4;stroke-dasharray:none;stroke-dashoffset:0;font-style:normal;font-variant:normal;font-weight:normal;font-stretch:normal;font-size:10.58333302px;line-height:1.25;font-family:sans-serif;font-variant-ligatures:normal;font-variant-position:normal;font-variant-caps:normal;font-variant-numeric:normal;font-variant-alternates:normal;font-feature-settings:normal;text-indent:0;text-align:start;text-decoration:none;text-decoration-line:none;text-decoration-style:solid;text-decoration-color:#000000;letter-spacing:0px;word-spacing:0px;text-transform:none;writing-mode:lr-tb;direction:ltr;text-orientation:mixed;dominant-baseline:auto;baseline-shift:baseline;text-anchor:start;white-space:normal;shape-padding:0;"
           y="158.66071"
           x="38.931545"
           id="tspan1959"
           sodipodi:role="line">C</tspan></text>
      <rect
         ry="1.8898809"
         y="146.1875"
         x="32.430355"
         height="17.008928"
         width="22.300594"
         id="rect1963"
         style="fill:none;stroke:#0038a5;stroke-width:0.56499994;stroke-miterlimit:4;stroke-dasharray:none;stroke-opacity:1;font-variant-east_asian:normal;vector-effect:none;fill-opacity:1;stroke-linecap:butt;stroke-linejoin:miter;stroke-dashoffset:0" />
    </g>
    <g
       style="stroke:#0038a5;stroke-opacity:1;font-variant-east_asian:normal;opacity:1;vector-effect:none;fill:none;fill-opacity:1;stroke-width:0.56499994;stroke-linecap:butt;stroke-linejoin:miter;stroke-miterlimit:4;stroke-dasharray:none;stroke-dashoffset:0"
       transform="matrix(0.96234544,0,0,0.96234544,140.16512,94.255246)"
       id="g1981">
      <text
         id="text1977"
         y="158.66071"
         x="38.931545"
         style="font-style:normal;font-weight:normal;font-size:10.58333302px;line-height:1.25;font-family:sans-serif;letter-spacing:0px;word-spacing:0px;fill:#0038a5;fill-opacity:1;stroke:#0038a5;stroke-width:0.26458332;stroke-opacity:1;font-variant-east_asian:normal;vector-effect:none;stroke-linecap:butt;stroke-linejoin:miter;stroke-miterlimit:4;stroke-dasharray:none;stroke-dashoffset:0;font-variant:normal;font-stretch:normal;font-variant-ligatures:normal;font-variant-position:normal;font-variant-caps:normal;font-variant-numeric:normal;font-variant-alternates:normal;font-feature-settings:normal;text-indent:0;text-align:start;text-decoration:none;text-decoration-line:none;text-decoration-style:solid;text-decoration-color:#000000;text-transform:none;writing-mode:lr-tb;direction:ltr;text-orientation:mixed;dominant-baseline:auto;baseline-shift:baseline;text-anchor:start;white-space:normal;shape-padding:0;opacity:1;"
         xml:space="preserve"><tspan
           style="stroke:#0038a5;stroke-width:0.26458332;stroke-opacity:1;font-variant-east_asian:normal;vector-effect:none;fill:#0038a5;fill-opacity:1;stroke-linecap:butt;stroke-linejoin:miter;stroke-miterlimit:4;stroke-dasharray:none;stroke-dashoffset:0;font-style:normal;font-variant:normal;font-weight:normal;font-stretch:normal;font-size:10.58333302px;line-height:1.25;font-family:sans-serif;font-variant-ligatures:normal;font-variant-position:normal;font-variant-caps:normal;font-variant-numeric:normal;font-variant-alternates:normal;font-feature-settings:normal;text-indent:0;text-align:start;text-decoration:none;text-decoration-line:none;text-decoration-style:solid;text-decoration-color:#000000;letter-spacing:0px;word-spacing:0px;text-transform:none;writing-mode:lr-tb;direction:ltr;text-orientation:mixed;dominant-baseline:auto;baseline-shift:baseline;text-anchor:start;white-space:normal;shape-padding:0;"
           y="158.66071"
           x="38.931545"
           id="tspan1975"
           sodipodi:role="line">C*</tspan></text>
      <rect
         ry="1.8898809"
         y="146.1875"
         x="32.430355"
         height="17.008928"
         width="22.300594"
         id="rect1979"
         style="fill:none;stroke:#0038a5;stroke-width:0.56499994;stroke-miterlimit:4;stroke-dasharray:none;stroke-opacity:1;font-variant-east_asian:normal;vector-effect:none;fill-opacity:1;stroke-linecap:butt;stroke-linejoin:miter;stroke-dashoffset:0" />
    </g>
    <path
       style="fill:none;fill-opacity:1;stroke:#6d6d6d;stroke-width:0.9464854;stroke-miterlimit:4;stroke-dasharray:none;stroke-dashoffset:0;stroke-opacity:1"
       d="m 143.62395,162.31944 c -2.92391,0 -5.27741,2.35351 -5.27741,5.27741 v 85.85238 c 0,2.92391 2.3535,5.27791 5.27741,5.27791 h 61.28747 v -96.4077 z"
       id="rect1991"
       inkscape:connector-curvature="0" />
    <path
       inkscape:connector-curvature="0"
       id="path1993"
       d="m 167.26402,207.11177 c 10.00295,2.54622 10.00295,2.54622 10.00295,2.54622"
       style="fill:none;stroke:#0038a5;stroke-width:0.5;stroke-linecap:butt;stroke-linejoin:miter;stroke-miterlimit:4;stroke-dasharray:none;stroke-opacity:1;font-variant-east_asian:normal;opacity:1;vector-effect:none;fill-opacity:1;stroke-dashoffset:0" />
    <path
       sodipodi:nodetypes="cc"
       style="fill:none;stroke:#0038a5;stroke-width:0.54372512;stroke-linecap:butt;stroke-linejoin:miter;stroke-miterlimit:4;stroke-dasharray:none;stroke-opacity:1;font-variant-east_asian:normal;opacity:1;vector-effect:none;fill-opacity:1;stroke-dashoffset:0"
       d="m 189.99799,183.83217 6.91114,14.18601"
       id="path1995"
       inkscape:connector-curvature="0" />
    <path
       inkscape:connector-curvature="0"
       id="path2003"
       d="m 188.90677,226.19812 -4.5468,9.1038"
       style="fill:none;stroke:#0038a5;stroke-width:0.54372512;stroke-linecap:butt;stroke-linejoin:miter;stroke-miterlimit:4;stroke-dasharray:none;stroke-opacity:1;font-variant-east_asian:normal;opacity:1;vector-effect:none;fill-opacity:1;stroke-dashoffset:0"
       sodipodi:nodetypes="cc" />
    <rect
       style="fill:url(#linearGradient2065);fill-opacity:1;stroke:none;stroke-width:0.96234548;stroke-miterlimit:4;stroke-dasharray:none;stroke-dashoffset:0;stroke-opacity:1"
       id="rect2057"
       width="14.913563"
       height="107.90186"
       x="-206.14832"
       y="155.77191"
       ry="0"
       transform="scale(-1,1)" />
    <g
       style="stroke:#0038a5;stroke-opacity:1;font-variant-east_asian:normal;opacity:1;vector-effect:none;fill:none;fill-opacity:1;stroke-width:0.56499994;stroke-linecap:butt;stroke-linejoin:miter;stroke-miterlimit:4;stroke-dasharray:none;stroke-dashoffset:0"
       id="g2092"
       transform="matrix(0.96234544,0,0,0.96234544,68.871359,136.8133)">
      <text
         xml:space="preserve"
         style="font-style:normal;font-weight:normal;font-size:10.58333302px;line-height:1.25;font-family:sans-serif;letter-spacing:0px;word-spacing:0px;fill:#0038a5;fill-opacity:1;stroke:#0038a5;stroke-width:0.26458332;stroke-opacity:1;font-variant-east_asian:normal;vector-effect:none;stroke-linecap:butt;stroke-linejoin:miter;stroke-miterlimit:4;stroke-dasharray:none;stroke-dashoffset:0;font-variant:normal;font-stretch:normal;font-variant-ligatures:normal;font-variant-position:normal;font-variant-caps:normal;font-variant-numeric:normal;font-variant-alternates:normal;font-feature-settings:normal;text-indent:0;text-align:start;text-decoration:none;text-decoration-line:none;text-decoration-style:solid;text-decoration-color:#000000;text-transform:none;writing-mode:lr-tb;direction:ltr;text-orientation:mixed;dominant-baseline:auto;baseline-shift:baseline;text-anchor:start;white-space:normal;shape-padding:0;opacity:1;"
         x="38.931545"
         y="158.66071"
         id="text2088"><tspan
           sodipodi:role="line"
           id="tspan2086"
           x="38.931545"
           y="158.66071"
           style="stroke:#0038a5;stroke-width:0.26458332;stroke-opacity:1;font-variant-east_asian:normal;vector-effect:none;fill:#0038a5;fill-opacity:1;stroke-linecap:butt;stroke-linejoin:miter;stroke-miterlimit:4;stroke-dasharray:none;stroke-dashoffset:0;font-style:normal;font-variant:normal;font-weight:normal;font-stretch:normal;font-size:10.58333302px;line-height:1.25;font-family:sans-serif;font-variant-ligatures:normal;font-variant-position:normal;font-variant-caps:normal;font-variant-numeric:normal;font-variant-alternates:normal;font-feature-settings:normal;text-indent:0;text-align:start;text-decoration:none;text-decoration-line:none;text-decoration-style:solid;text-decoration-color:#000000;letter-spacing:0px;word-spacing:0px;text-transform:none;writing-mode:lr-tb;direction:ltr;text-orientation:mixed;dominant-baseline:auto;baseline-shift:baseline;text-anchor:start;white-space:normal;shape-padding:0;">S*</tspan></text>
      <rect
         style="fill:none;stroke:#0038a5;stroke-width:0.56499994;stroke-miterlimit:4;stroke-dasharray:none;stroke-opacity:1;font-variant-east_asian:normal;vector-effect:none;fill-opacity:1;stroke-linecap:butt;stroke-linejoin:miter;stroke-dashoffset:0"
         id="rect2090"
         width="22.300594"
         height="17.008928"
         x="32.430355"
         y="146.1875"
         ry="1.8898809" />
    </g>
    <path
       sodipodi:nodetypes="cc"
       style="fill:none;stroke:#0038a5;stroke-width:0.54372512;stroke-linecap:butt;stroke-linejoin:miter;stroke-miterlimit:4;stroke-dasharray:none;stroke-opacity:1;marker-start:url(#marker2098);font-variant-east_asian:normal;opacity:1;vector-effect:none;fill-opacity:1;stroke-dashoffset:0"
       d="m 85.421693,246.39607 25.462047,31.28197"
       id="path2094"
       inkscape:connector-curvature="0" />
    <path
       inkscape:connector-curvature="0"
       id="path2130"
       d="m 171.33795,247.12356 -56.38026,30.55448"
       style="fill:none;stroke:#0038a5;stroke-width:0.54372512;stroke-linecap:butt;stroke-linejoin:miter;stroke-miterlimit:4;stroke-dasharray:none;stroke-opacity:1;marker-start:url(#marker2134);font-variant-east_asian:normal;opacity:1;vector-effect:none;fill-opacity:1;stroke-dashoffset:0"
       sodipodi:nodetypes="cc" />
  </g>
</svg>
